<svg width="47" height="55" viewBox="0 0 47 55" fill="none" xmlns="http://www.w3.org/2000/svg">
<path d="M45.456 51.9497H42.1783C41.6872 49.5428 39.5517 47.7262 36.9991 47.7262H10.5712V45.6144H15.8567C17.2348 45.6144 18.4099 44.7315 18.8463 43.5026H36.9991C38.7512 43.5026 40.1704 42.0851 40.1704 40.3349C40.1704 38.5883 38.7477 37.1673 36.9991 37.1673H18.8463C18.4099 35.9383 17.2349 35.0555 15.8567 35.0555H10.5712V24.2854C10.5712 21.3743 12.9423 19.006 15.8567 19.006H17.9731C18.7512 20.0385 19.8838 20.7513 21.1423 21.0098V24.2854C21.1423 24.6925 21.3401 24.8958 23.3108 30.9546C23.4547 31.3859 23.8587 31.6767 24.3137 31.6767H32.7706C33.2257 31.6767 33.6296 31.3859 33.7735 30.9546C35.9623 24.3374 35.9419 24.5961 35.9419 24.2854V9.503C35.9419 8.91993 35.4686 8.44711 34.8848 8.44711H33.8277V6.33533H34.8848C35.4686 6.33533 35.9419 5.8625 35.9419 5.27944V1.05589C35.9419 0.472827 35.4686 0 34.8848 0H22.1994C21.6157 0 21.1423 0.472827 21.1423 1.05589V5.27944C21.1423 5.8625 21.6157 6.33533 22.1994 6.33533H23.2566V8.44711H22.1994C21.6157 8.44711 21.1423 8.91993 21.1423 9.503V10.6669C19.884 10.9253 18.7515 11.6379 17.9731 12.6707H15.8567C9.44491 12.6707 4.22846 17.881 4.22846 24.2854C4.22846 25.2636 4.22846 50.5742 4.22846 51.9497H1.05712C0.473377 51.9497 0 52.4225 0 53.0056C0 53.5887 0.473377 54.0615 1.05712 54.0615H45.456C46.0397 54.0615 46.5131 53.5887 46.5131 53.0056C46.5131 52.4225 46.0397 51.9497 45.456 51.9497ZM19.0281 39.279H36.9991C37.582 39.279 38.0562 39.7527 38.0562 40.3349C38.0562 40.9178 37.5827 41.3908 36.9991 41.3908H19.0281V39.279ZM23.2566 2.11178H33.8277V4.22355H23.2566V2.11178ZM31.7135 6.33533V8.44711H25.3708V6.33533H31.7135ZM23.2566 10.5589H33.8277V24.1141L32.0086 29.5649H25.0756L23.6662 25.3413H26.4279C27.0116 25.3413 27.485 24.8685 27.485 24.2854C27.485 23.7024 27.0116 23.2295 26.4279 23.2295H23.2566V21.0115C25.6663 20.521 27.485 18.388 27.485 15.8383C27.485 13.2887 25.6663 11.1557 23.2566 10.6651V10.5589ZM19.4515 14.2553C20.0177 13.2779 21.0707 12.6707 22.1994 12.6707C23.9481 12.6707 25.3708 14.0917 25.3708 15.8383C25.3708 17.585 23.9481 19.006 22.1994 19.006C21.0707 19.006 20.0177 18.3988 19.4521 17.4223C19.1747 16.9423 19.0281 16.3947 19.0281 15.8383C19.0281 15.282 19.1747 14.7344 19.4515 14.2553ZM15.8567 37.1673C16.4396 37.1673 16.9139 37.6409 16.9139 38.2232V42.4467C16.9139 43.0289 16.4396 43.5026 15.8567 43.5026H10.5712V37.1673H15.8567ZM6.3427 24.2854C6.3427 19.0455 10.6107 14.7719 15.8567 14.7719H17.0214C16.9508 15.1182 16.9139 15.4824 16.9139 15.8383C16.9139 16.1942 16.9506 16.5479 17.0214 16.8942H15.8567C11.7764 16.8942 8.45693 20.2099 8.45693 24.2854C8.45693 27.1423 8.45693 44.9029 8.45693 47.7262H6.3427V24.2854ZM6.3427 51.9497V49.8379C7.69073 49.8379 35.6672 49.8379 36.9991 49.8379C38.3771 49.8379 39.5522 50.7208 39.9886 51.9497H6.3427Z" fill="#4DC1FF"/>
</svg>
