<svg width="55" height="55" viewBox="0 0 55 55" fill="none" xmlns="http://www.w3.org/2000/svg">
<path d="M53.0661 39.4907H49.472V36.9747C49.472 35.2062 48.7142 33.5892 47.4822 32.4611V20.8714C47.4822 15.6715 43.1586 11.441 37.844 11.441C32.5295 11.441 28.206 15.6715 28.206 20.8714V32.4609C26.9738 33.5889 26.2162 35.206 26.2162 36.9745V39.4906H24.0492C23.4653 39.4906 22.9921 39.9634 22.9921 40.5465C22.9921 41.1296 23.4653 41.6024 24.0492 41.6024H27.2733H28.9647V48.3597C28.9647 48.9428 29.4379 49.4156 30.0218 49.4156H33.7216C34.3054 49.4156 34.7787 48.9428 34.7787 48.3597C34.7787 47.7767 34.3054 47.3039 33.7216 47.3039H31.0789V41.6022H44.6097V47.3039H41.7556C41.1717 47.3039 40.6984 47.7767 40.6984 48.3597C40.6984 48.9428 41.1717 49.4156 41.7556 49.4156H45.6668C46.2506 49.4156 46.7239 48.9428 46.7239 48.3597V41.6023H48.4153H52.0094V51.9498H25.7932V48.5424C25.7932 45.2982 23.4752 42.5156 20.2812 41.9258L17.5053 41.4133C17.3736 41.389 17.2504 41.344 17.1371 41.284C17.0728 41.2291 17.002 41.1829 16.9269 41.1449C16.64 40.9107 16.4593 40.5574 16.4544 40.1671C18.6208 38.9289 20.0849 36.5989 20.0849 33.9323V29.8569C20.0849 25.8979 16.8603 22.6771 12.8967 22.6771C8.93316 22.6771 5.70853 25.8979 5.70853 29.8569V33.9323C5.70853 36.5983 7.172 38.9279 9.33751 40.1663C9.33285 40.5582 9.15092 40.913 8.86201 41.1473C8.7895 41.1845 8.72099 41.2291 8.65863 41.282C8.54425 41.3432 8.41972 41.3888 8.28652 41.4134L5.51191 41.9259C2.31815 42.5157 0 45.2983 0 48.5425V53.0059C0 53.5889 0.473271 54.0618 1.05712 54.0618H24.7359H53.0658C53.6497 54.0618 54.123 53.5889 54.123 53.0059V40.5467C54.1232 39.9634 53.6499 39.4907 53.0661 39.4907ZM30.32 20.8714H30.3201C30.3201 16.8359 33.6953 13.5528 37.844 13.5528C41.9928 13.5528 45.3679 16.836 45.3679 20.8714V31.1983C45.0747 31.096 44.7713 31.0136 44.4579 30.9558L41.9795 30.498C41.5338 30.4157 41.2001 30.055 41.1428 29.616C43.0877 28.4793 44.3979 26.3717 44.3979 23.9629V20.5643C44.3979 20.1899 44.1995 19.8436 43.8762 19.654L40.1991 17.4961C39.7537 17.2347 39.1849 17.3331 38.8533 17.7283C37.9042 18.8596 36.5124 19.5084 35.0346 19.5084H32.347C31.7632 19.5084 31.2899 19.9813 31.2899 20.5643V23.9629C31.2899 26.3711 32.5994 28.4783 34.5437 29.6153C34.4867 30.0547 34.153 30.4157 33.7071 30.4981L31.2297 30.9556C30.9164 31.0135 30.613 31.0959 30.3199 31.1982V20.8714H30.32ZM39.8999 27.8917C39.7165 27.9225 39.549 27.9995 39.4107 28.1117C38.9231 28.2961 38.3953 28.3978 37.8439 28.3978C37.2914 28.3978 36.7626 28.2956 36.2742 28.1106C36.1366 27.9995 35.9704 27.9229 35.7885 27.892C34.3727 27.15 33.4041 25.6679 33.4041 23.9631V21.6204H35.0347C36.835 21.6204 38.5459 20.9442 39.8493 19.7402L42.2837 21.1687V23.9631C42.2838 25.6674 41.3155 27.1495 39.8999 27.8917ZM39.9304 31.695L37.8445 34.5372L35.7571 31.694C36.1182 31.3295 36.3879 30.8784 36.5368 30.3782C36.9594 30.464 37.3965 30.5093 37.844 30.5093C38.2911 30.5093 38.7278 30.464 39.15 30.3784C39.2987 30.8788 39.5689 31.3303 39.9304 31.695ZM47.3577 39.4907H45.6664H30.0216H28.3302V36.9746C28.3302 35.0416 29.7114 33.3836 31.6142 33.0322L33.8185 32.6251L36.9921 36.9476C37.1912 37.2188 37.5079 37.379 37.8447 37.379C38.1814 37.379 38.4981 37.2186 38.6971 36.9474L41.8692 32.6252L44.0734 33.0323C45.9764 33.3838 47.3576 35.0417 47.3576 36.9747V39.4907H47.3577ZM7.82276 33.9321V29.8567C7.82276 27.0621 10.0989 24.7885 12.8968 24.7885C15.6946 24.7885 17.9709 27.062 17.9709 29.8567V33.9321C17.9709 36.7267 15.6947 39.0003 12.8968 39.0003C10.0989 39.0003 7.82276 36.7268 7.82276 33.9321ZM14.6234 41.5079L12.8968 41.9996L11.1689 41.5075C11.2477 41.327 11.3112 41.1388 11.358 40.9445C11.8539 41.0531 12.3685 41.1119 12.8967 41.1119C13.4244 41.1119 13.9385 41.0532 14.4342 40.9449C14.4809 41.1393 14.5444 41.3274 14.6234 41.5079ZM23.6789 51.9499H2.11434V50.2605H2.11444H9.34385C9.92769 50.2605 10.401 49.7876 10.401 49.2046C10.401 48.6215 9.92769 48.1487 9.34385 48.1487H2.13146C2.3061 46.0943 3.83543 44.3827 5.89638 44.0021L8.67099 43.4896C8.96096 43.436 9.23623 43.3462 9.49332 43.2261L12.6067 44.113C12.7015 44.14 12.799 44.1535 12.8966 44.1535C12.9942 44.1535 13.0917 44.14 13.1865 44.113L16.299 43.2264C16.556 43.3464 16.8311 43.4361 17.1208 43.4897L19.8967 44.0022C22.0881 44.4069 23.6789 46.3163 23.6789 48.5424V51.9499Z" fill="#4DC1FF"/>
<path d="M28.1724 0H14.9589C12.6566 0 10.7834 1.87103 10.7834 4.17065V5.70317H4.17651C1.87422 5.70317 0.00100708 7.5742 0.00100708 9.87382V15.681C0.00111279 17.9806 1.87432 19.8517 4.17662 19.8517H4.22947V23.4152C4.22947 23.8423 4.48709 24.2273 4.88203 24.3907C5.01279 24.4448 5.15011 24.4711 5.28627 24.4711C5.56144 24.4711 5.83185 24.3638 6.03407 24.1618L10.3492 19.8517H17.3902C19.6925 19.8517 21.5658 17.9807 21.5658 15.681V13.0927H23.2068L26.3151 16.1974C26.5174 16.3994 26.7877 16.5067 27.0629 16.5067C27.199 16.5067 27.3363 16.4804 27.4671 16.4263C27.8621 16.2629 28.1197 15.8779 28.1197 15.4508V13.0927H28.1725C30.4748 13.0927 32.348 11.2217 32.348 8.92205V4.17065C32.3479 1.87103 30.4748 0 28.1724 0ZM19.4515 15.681C19.4515 16.8163 18.5268 17.7399 17.3902 17.7399H9.91136C9.63102 17.7399 9.36209 17.8512 9.16388 18.0491L6.3437 20.866V18.7959C6.3437 18.2128 5.87043 17.74 5.28659 17.74H4.17662C3.04 17.74 2.11535 16.8163 2.11535 15.6811V9.87372C2.11535 8.73843 3.04011 7.81474 4.17662 7.81474H17.3902C18.5269 7.81474 19.4515 8.73843 19.4515 9.87372V15.681ZM30.2339 8.92205C30.2339 10.0573 29.3091 10.9809 28.1726 10.9809H27.0626C26.4788 10.9809 26.0055 11.4537 26.0055 12.0368V12.9017L24.3922 11.2901C24.194 11.0921 23.925 10.9808 23.6447 10.9808H21.5658V9.87372C21.5658 7.5741 19.6925 5.70306 17.3902 5.70306H12.8976V4.17065C12.8976 3.03536 13.8224 2.11178 14.9589 2.11178H28.1725C29.3091 2.11178 30.2338 3.03547 30.2338 4.17065V8.92205H30.2339Z" fill="#4DC1FF"/>
<path d="M36.2076 22.8407C36.011 22.6445 35.7382 22.5314 35.4602 22.5314C35.1822 22.5314 34.9095 22.6444 34.7128 22.8407C34.5162 23.0371 34.4031 23.3096 34.4031 23.5873C34.4031 23.866 34.5162 24.1374 34.7128 24.3338C34.9095 24.5311 35.1822 24.6431 35.4602 24.6431C35.7382 24.6431 36.011 24.5311 36.2076 24.3338C36.4042 24.1374 36.5173 23.8649 36.5173 23.5873C36.5173 23.3096 36.4042 23.0371 36.2076 22.8407Z" fill="#4DC1FF"/>
<path d="M40.9751 22.8407C40.7785 22.6444 40.5057 22.5314 40.2277 22.5314C39.9497 22.5314 39.677 22.6444 39.4803 22.8407C39.2837 23.0371 39.1706 23.3096 39.1706 23.5873C39.1706 23.865 39.2837 24.1374 39.4803 24.3338C39.677 24.5311 39.9497 24.6431 40.2277 24.6431C40.5057 24.6431 40.7785 24.5311 40.9751 24.3338C41.1717 24.1374 41.2848 23.865 41.2848 23.5873C41.2848 23.3096 41.1717 23.0371 40.9751 22.8407Z" fill="#4DC1FF"/>
<path d="M39.4668 25.2381C39.0541 24.8258 38.3847 24.8258 37.9718 25.238C37.8952 25.3147 37.7705 25.3146 37.6939 25.238C37.2811 24.8256 36.6116 24.8257 36.1989 25.2381C35.7861 25.6504 35.7861 26.3189 36.1989 26.7314C36.6494 27.1813 37.2412 27.4063 37.8328 27.4063C38.4246 27.4063 39.0163 27.1813 39.4668 26.7314C39.8796 26.3189 39.8797 25.6504 39.4668 25.2381Z" fill="#4DC1FF"/>
<path d="M38.5923 47.6134C38.3947 47.417 38.123 47.304 37.845 47.304C37.5659 47.304 37.2942 47.4169 37.0965 47.6134C36.8999 47.8098 36.7868 48.0822 36.7868 48.3599C36.7868 48.6376 36.8999 48.91 37.0965 49.1063C37.2942 49.3027 37.5659 49.4158 37.845 49.4158C38.123 49.4158 38.3948 49.3027 38.5923 49.1063C38.789 48.91 38.9021 48.6376 38.9021 48.3599C38.902 48.0822 38.7889 47.8098 38.5923 47.6134Z" fill="#4DC1FF"/>
<path d="M13.531 9.82098H5.28569C4.70185 9.82098 4.22858 10.2938 4.22858 10.8769C4.22858 11.4599 4.70185 11.9328 5.28569 11.9328H13.531C14.1148 11.9328 14.5881 11.4599 14.5881 10.8769C14.5881 10.2938 14.1148 9.82098 13.531 9.82098Z" fill="#4DC1FF"/>
<path d="M16.921 13.9314C16.7244 13.735 16.4517 13.622 16.1737 13.622C15.8956 13.622 15.6229 13.7349 15.4263 13.9314C15.2297 14.1278 15.1165 14.4002 15.1165 14.6779C15.1165 14.9556 15.2297 15.228 15.4263 15.4243C15.6229 15.6207 15.8955 15.7338 16.1737 15.7338C16.4517 15.7338 16.7244 15.6208 16.921 15.4243C17.1177 15.228 17.2308 14.9556 17.2308 14.6779C17.2308 14.4002 17.1177 14.1278 16.921 13.9314Z" fill="#4DC1FF"/>
<path d="M12.2624 13.622H5.28569C4.70185 13.622 4.22858 14.0949 4.22858 14.6779C4.22858 15.261 4.70185 15.7338 5.28569 15.7338H12.2624C12.8463 15.7338 13.3196 15.261 13.3196 14.6779C13.3196 14.0949 12.8463 13.622 12.2624 13.622Z" fill="#4DC1FF"/>
<path d="M13.7773 48.4581C13.5807 48.2616 13.309 48.1487 13.0299 48.1487C12.7519 48.1487 12.4792 48.2616 12.2825 48.4581C12.0859 48.6545 11.9728 48.9269 11.9728 49.2046C11.9728 49.4823 12.0859 49.7547 12.2825 49.951C12.4792 50.1474 12.7519 50.2605 13.0299 50.2605C13.309 50.2605 13.5807 50.1475 13.7773 49.951C13.975 49.7547 14.0881 49.4823 14.0881 49.2046C14.0881 48.9269 13.975 48.6545 13.7773 48.4581Z" fill="#4DC1FF"/>
</svg>
