<svg width="50" height="63" viewBox="0 0 50 63" fill="none" xmlns="http://www.w3.org/2000/svg">
<path d="M50 57L22.5 62.5L38.5 49L50 57Z" fill="url(#paint0_linear)"/>
<path d="M22.5 62.5L7 40C17 49 27 49 38 40L22.5 62.5Z" fill="#4DC1FF"/>
<path d="M31.9356 6.88769L33.8294 5.6075L27.3945 5.1541L29.6884 2.51371L22.5 4.55401L24.6205 0L13.4512 6.68766C6.82292 10.0081 2.26849 16.8625 2.26849 24.777C2.26849 35.9453 11.324 45 22.4933 45C33.6627 45 42.7182 35.9453 42.7182 24.777C42.7249 17.0159 38.3505 10.2815 31.9356 6.88769Z" fill="#4DC1FF"/>
<path d="M44.9521 23.517C44.772 21.3167 44.5586 17.7161 39.0173 16.9827C29.6684 15.7559 26.0475 19.5097 25.0139 20.2299C24.1737 20.8166 22.5467 20.8033 22.5467 20.8033C22.5467 20.8033 20.8263 20.8166 19.9861 20.2299C18.9525 19.5097 15.3316 15.7559 5.98271 16.9827C0.434715 17.7095 0.227999 21.3167 0.0479554 23.517C-0.178766 26.2574 0.274677 31.5449 4.1356 33.0584C8.81006 34.8854 17.6922 33.3718 19.7327 30.1713C21.4131 27.5376 20.2395 24.8039 22.48 24.8039C24.7205 24.8039 23.5803 27.5376 25.2607 30.1713C27.3012 33.3718 36.1833 34.8854 40.8577 33.0584C44.7253 31.5515 45.1788 26.2574 44.9521 23.517ZM17.7789 29.3112C14.3914 32.4983 7.37638 31.7916 5.40257 31.1581C2.33517 30.178 1.10154 22.3368 3.66882 20.1832C6.13608 18.1095 13.7779 18.5563 17.6989 21.1367C19.4059 22.2568 19.6793 27.5176 17.7789 29.3112ZM39.6041 31.1581C37.6303 31.7916 30.6153 32.4983 27.2278 29.3112C25.3207 27.5176 25.6008 22.2635 27.3145 21.1367C31.2354 18.5629 38.8839 18.1095 41.3445 20.1832C43.9051 22.3368 42.6715 30.178 39.6041 31.1581Z" fill="#1F465C"/>
<defs>
<linearGradient id="paint0_linear" x1="22.5" y1="62.5" x2="37.5" y2="49.5" gradientUnits="userSpaceOnUse">
<stop stop-color="#11263F" stop-opacity="0.3"/>
<stop offset="1" stop-color="#11263F" stop-opacity="0"/>
</linearGradient>
</defs>
</svg>
