<svg width="13" height="14" viewBox="0 0 13 14" fill="none" xmlns="http://www.w3.org/2000/svg">
<path fill-rule="evenodd" clip-rule="evenodd" d="M8.24268 6L4.29297 2.05029L5.70715 0.63623L12.0711 7L5.70715 13.3643L4.29297 11.9497L8.24268 8H0V6H8.24268Z" fill="#4DC1FF"/>
</svg>
