<svg width="14" height="16" viewBox="0 0 14 16" fill="none" xmlns="http://www.w3.org/2000/svg">
<path fill-rule="evenodd" clip-rule="evenodd" d="M5 10C4.73478 10 4.48043 10.1053 4.29289 10.2928C4.10536 10.4804 4 10.7348 4 11C4 11.2652 4.10536 11.5196 4.29289 11.7072C4.48043 11.8947 4.73478 12 5 12H9C9.26522 12 9.51957 11.8947 9.70711 11.7072C9.89464 11.5196 10 11.2652 10 11C10 10.7348 9.89464 10.4804 9.70711 10.2928C9.51957 10.1053 9.26522 10 9 10H5ZM5 8H6C6.26522 8 6.51957 7.89469 6.70711 7.70715C6.89464 7.51962 7 7.26522 7 7C7 6.73479 6.89464 6.48038 6.70711 6.29285C6.51957 6.10531 6.26522 6 6 6H5C4.73478 6 4.48043 6.10531 4.29289 6.29285C4.10536 6.48038 4 6.73479 4 7C4 7.26522 4.10536 7.51962 4.29289 7.70715C4.48043 7.89469 4.73478 8 5 8ZM13.706 4.29004L9.70599 0.290041C9.51826 0.103836 9.26442 -0.000473465 9 1.61574e-06H1C0.734784 1.61574e-06 0.480429 0.105312 0.292892 0.292848C0.105356 0.480385 0 0.734785 0 1V15C0 15.2652 0.105356 15.5196 0.292892 15.7072C0.480429 15.8947 0.734784 16 1 16H13C13.2652 16 13.5196 15.8947 13.7071 15.7072C13.8946 15.5196 14 15.2652 14 15V5C14.0007 4.86805 13.975 4.73727 13.9245 4.61536C13.8741 4.49344 13.7998 4.38288 13.706 4.29004ZM10 3.41004L10.586 4H10V3.41004ZM12 14H2V2H8V5C8 5.26522 8.10536 5.51962 8.29289 5.70715C8.48043 5.89469 8.73478 6 9 6H12V14Z" fill="#4DC1FF"/>
</svg>
