<svg width="50" height="50" viewBox="0 0 50 50" fill="none" xmlns="http://www.w3.org/2000/svg">
<circle cx="25" cy="25" r="25" fill="url(#paint0_linear)"/>
<path d="M27.5924 27.5924C28.3086 26.8763 28.6667 26.0122 28.6667 25C28.6667 23.9878 28.3086 23.1237 27.5924 22.4076C26.8763 21.6914 26.0122 21.3333 25 21.3333C23.9878 21.3333 23.1237 21.6914 22.4076 22.4076C21.6914 23.1237 21.3333 23.9878 21.3333 25C21.3333 26.0122 21.6914 26.8763 22.4076 27.5924C23.1237 28.3086 23.9878 28.6667 25 28.6667C26.0122 28.6667 26.8763 28.3086 27.5924 27.5924ZM28.9961 21.0039C30.0942 22.102 30.6432 23.434 30.6432 25C30.6432 26.566 30.0942 27.898 28.9961 28.9961C27.898 30.0942 26.566 30.6432 25 30.6432C23.434 30.6432 22.102 30.0942 21.0039 28.9961C19.9058 27.898 19.3568 26.566 19.3568 25C19.3568 23.434 19.9058 22.102 21.0039 21.0039C22.102 19.9058 23.434 19.3568 25 19.3568C26.566 19.3568 27.898 19.9058 28.9961 21.0039ZM31.8034 18.1966C32.0612 18.4544 32.1901 18.7648 32.1901 19.1276C32.1901 19.4905 32.0612 19.8008 31.8034 20.0586C31.5456 20.3164 31.2352 20.4453 30.8724 20.4453C30.5096 20.4453 30.1992 20.3164 29.9414 20.0586C29.6836 19.8008 29.5547 19.4905 29.5547 19.1276C29.5547 18.7648 29.6836 18.4544 29.9414 18.1966C30.1992 17.9388 30.5096 17.8099 30.8724 17.8099C31.2352 17.8099 31.5456 17.9388 31.8034 18.1966ZM26.0885 15.9766C25.4297 15.9766 25.0668 15.9766 25 15.9766C24.9332 15.9766 24.5655 15.9766 23.8971 15.9766C23.2383 15.967 22.737 15.967 22.3932 15.9766C22.0495 15.9766 21.5864 15.9909 21.0039 16.0195C20.431 16.0386 19.9392 16.0864 19.5286 16.1628C19.1276 16.2296 18.7886 16.3155 18.5117 16.4206C18.0343 16.6115 17.6141 16.8885 17.2513 17.2513C16.8885 17.6141 16.6115 18.0343 16.4206 18.5117C16.3155 18.7886 16.2248 19.1324 16.1484 19.543C16.0816 19.944 16.0339 20.4358 16.0052 21.0182C15.9861 21.5911 15.9718 22.0495 15.9622 22.3932C15.9622 22.737 15.9622 23.2431 15.9622 23.9115C15.9718 24.5703 15.9766 24.9332 15.9766 25C15.9766 25.0668 15.9718 25.4345 15.9622 26.1029C15.9622 26.7617 15.9622 27.263 15.9622 27.6068C15.9718 27.9505 15.9861 28.4136 16.0052 28.9961C16.0339 29.569 16.0816 30.0608 16.1484 30.4714C16.2248 30.8724 16.3155 31.2114 16.4206 31.4883C16.6115 31.9657 16.8885 32.3859 17.2513 32.7487C17.6141 33.1115 18.0343 33.3885 18.5117 33.5794C18.7886 33.6845 19.1276 33.7752 19.5286 33.8516C19.9392 33.9184 20.431 33.9661 21.0039 33.9948C21.5864 34.0139 22.0495 34.0282 22.3932 34.0378C22.737 34.0378 23.2383 34.0378 23.8971 34.0378C24.5655 34.0282 24.9332 34.0234 25 34.0234C25.0668 34.0234 25.4297 34.0282 26.0885 34.0378C26.7569 34.0378 27.263 34.0378 27.6068 34.0378C27.9505 34.0282 28.4089 34.0139 28.9818 33.9948C29.5642 33.9661 30.056 33.9184 30.457 33.8516C30.8676 33.7752 31.2114 33.6845 31.4883 33.5794C31.9657 33.3885 32.3859 33.1115 32.7487 32.7487C33.1115 32.3859 33.3885 31.9657 33.5794 31.4883C33.6845 31.2114 33.7704 30.8724 33.8372 30.4714C33.9136 30.0608 33.9614 29.569 33.9805 28.9961C34.0091 28.4136 34.0234 27.9505 34.0234 27.6068C34.033 27.263 34.033 26.7617 34.0234 26.1029C34.0234 25.4345 34.0234 25.0668 34.0234 25C34.0234 24.9332 34.0234 24.5703 34.0234 23.9115C34.033 23.2431 34.033 22.737 34.0234 22.3932C34.0234 22.0495 34.0091 21.5911 33.9805 21.0182C33.9614 20.4358 33.9136 19.944 33.8372 19.543C33.7704 19.1324 33.6845 18.7886 33.5794 18.5117C33.3885 18.0343 33.1115 17.6141 32.7487 17.2513C32.3859 16.8885 31.9657 16.6115 31.4883 16.4206C31.2114 16.3155 30.8676 16.2296 30.457 16.1628C30.056 16.0864 29.5642 16.0386 28.9818 16.0195C28.4089 15.9909 27.9505 15.9766 27.6068 15.9766C27.263 15.967 26.7569 15.967 26.0885 15.9766ZM35.9284 20.4596C35.9761 21.2999 36 22.8134 36 25C36 27.1866 35.9761 28.7001 35.9284 29.5404C35.8329 31.5265 35.2409 33.0638 34.1523 34.1523C33.0638 35.2409 31.5265 35.8329 29.5404 35.9284C28.7001 35.9761 27.1866 36 25 36C22.8134 36 21.2999 35.9761 20.4596 35.9284C18.4735 35.8329 16.9362 35.2409 15.8477 34.1523C14.7591 33.0638 14.1671 31.5265 14.0716 29.5404C14.0239 28.7001 14 27.1866 14 25C14 22.8134 14.0239 21.2999 14.0716 20.4596C14.1671 18.4735 14.7591 16.9362 15.8477 15.8477C16.9362 14.7591 18.4735 14.1671 20.4596 14.0716C21.2999 14.0239 22.8134 14 25 14C27.1866 14 28.7001 14.0239 29.5404 14.0716C31.5265 14.1671 33.0638 14.7591 34.1523 15.8477C35.2409 16.9362 35.8329 18.4735 35.9284 20.4596Z" fill="white"/>
<defs>
<linearGradient id="paint0_linear" x1="50" y1="-2.98023e-06" x2="2.98023e-06" y2="50" gradientUnits="userSpaceOnUse">
<stop stop-color="#FF8D24"/>
<stop offset="1" stop-color="#FF186B"/>
</linearGradient>
</defs>
</svg>
